^C:\USERS\DAVID\DOWNLOADS\OF_V0.9.8_VS_RELEASE\OF_V0.9.8_VS_RELEASE\ADDONS\OFXGUI\SRC\OFXBASEGUI.CPP|C:\USERS\DAVID\DOWNLOADS\OF_V0.9.8_VS_RELEASE\OF_V0.9.8_VS_RELEASE\ADDONS\OFXGUI\SRC\OFXBUTTON.CPP|C:\USERS\DAVID\DOWNLOADS\OF_V0.9.8_VS_RELEASE\OF_V0.9.8_VS_RELEASE\ADDONS\OFXGUI\SRC\OFXGUIGROUP.CPP|C:\USERS\DAVID\DOWNLOADS\OF_V0.9.8_VS_RELEASE\OF_V0.9.8_VS_RELEASE\ADDONS\OFXGUI\SRC\OFXLABEL.CPP|C:\USERS\DAVID\DOWNLOADS\OF_V0.9.8_VS_RELEASE\OF_V0.9.8_VS_RELEASE\ADDONS\OFXGUI\SRC\OFXPANEL.CPP|C:\USERS\DAVID\DOWNLOADS\OF_V0.9.8_VS_RELEASE\OF_V0.9.8_VS_RELEASE\ADDONS\OFXGUI\SRC\OFXSLIDER.CPP|C:\USERS\DAVID\DOWNLOADS\OF_V0.9.8_VS_RELEASE\OF_V0.9.8_VS_RELEASE\ADDONS\OFXGUI\SRC\OFXSLIDERGROUP.CPP|C:\USERS\DAVID\DOWNLOADS\OF_V0.9.8_VS_RELEASE\OF_V0.9.8_VS_RELEASE\ADDONS\OFXGUI\SRC\OFXTOGGLE.CPP|C:\USERS\DAVID\DOWNLOADS\OF_V0.9.8_VS_RELEASE\OF_V0.9.8_VS_RELEASE\ADDONS\OFXSVG\LIBS\SVGTINY\SRC\SRC_COLORS.CPP|C:\USERS\DAVID\DOWNLOADS\OF_V0.9.8_VS_RELEASE\OF_V0.9.8_VS_RELEASE\ADDONS\OFXSVG\LIBS\SVGTINY\SRC\SVGTINY.CPP|C:\USERS\DAVID\DOWNLOADS\OF_V0.9.8_VS_RELEASE\OF_V0.9.8_VS_RELEASE\ADDONS\OFXSVG\LIBS\SVGTINY\SRC\SVGTINY_GRADIENT.CPP|C:\USERS\DAVID\DOWNLOADS\OF_V0.9.8_VS_RELEASE\OF_V0.9.8_VS_RELEASE\ADDONS\OFXSVG\LIBS\SVGTINY\SRC\SVGTINY_LIST.CPP|C:\USERS\DAVID\DOWNLOADS\OF_V0.9.8_VS_RELEASE\OF_V0.9.8_VS_RELEASE\ADDONS\OFXSVG\SRC\OFXSVG.CPP|C:\USERS\DAVID\DOWNLOADS\OF_V0.9.8_VS_RELEASE\OF_V0.9.8_VS_RELEASE\ADDONS\OFXVECTORGRAPHICS\LIBS\CREEPS.CPP|C:\USERS\DAVID\DOWNLOADS\OF_V0.9.8_VS_RELEASE\OF_V0.9.8_VS_RELEASE\ADDONS\OFXVECTORGRAPHICS\SRC\OFXVECTORGRAPHICS.CPP|C:\USERS\DAVID\DOWNLOADS\OF_V0.9.8_VS_RELEASE\OF_V0.9.8_VS_RELEASE\ADDONS\OFXXMLSETTINGS\LIBS\TINYXML.CPP|C:\USERS\DAVID\DOWNLOADS\OF_V0.9.8_VS_RELEASE\OF_V0.9.8_VS_RELEASE\ADDONS\OFXXMLSETTINGS\LIBS\TINYXMLERROR.CPP|C:\USERS\DAVID\DOWNLOADS\OF_V0.9.8_VS_RELEASE\OF_V0.9.8_VS_RELEASE\ADDONS\OFXXMLSETTINGS\LIBS\TINYXMLPARSER.CPP|C:\USERS\DAVID\DOWNLOADS\OF_V0.9.8_VS_RELEASE\OF_V0.9.8_VS_RELEASE\ADDONS\OFXXMLSETTINGS\SRC\OFXXMLSETTINGS.CPP|C:\USERS\DAVID\DOWNLOADS\OF_V0.9.8_VS_RELEASE\OF_V0.9.8_VS_RELEASE\APPS\MYAPPS\TEST-GUI-IFT\CAUSE3DSMAXSUCKS\PRIMELLIPSE.CPP|C:\USERS\DAVID\DOWNLOADS\OF_V0.9.8_VS_RELEASE\OF_V0.9.8_VS_RELEASE\APPS\MYAPPS\TEST-GUI-IFT\CAUSE3DSMAXSUCKS\PRIMITIVEVECTORIELLE.CPP|C:\USERS\DAVID\DOWNLOADS\OF_V0.9.8_VS_RELEASE\OF_V0.9.8_VS_RELEASE\APPS\MYAPPS\TEST-GUI-IFT\CAUSE3DSMAXSUCKS\PRIMRECT.CPP|C:\USERS\DAVID\DOWNLOADS\OF_V0.9.8_VS_RELEASE\OF_V0.9.8_VS_RELEASE\APPS\MYAPPS\TEST-GUI-IFT\CAUSE3DSMAXSUCKS\PRIMTRIANGLE.CPP|C:\USERS\DAVID\DOWNLOADS\OF_V0.9.8_VS_RELEASE\OF_V0.9.8_VS_RELEASE\APPS\MYAPPS\TEST-GUI-IFT\CAUSE3DSMAXSUCKS\SRC\MAIN.CPP|C:\USERS\DAVID\DOWNLOADS\OF_V0.9.8_VS_RELEASE\OF_V0.9.8_VS_RELEASE\APPS\MYAPPS\TEST-GUI-IFT\CAUSE3DSMAXSUCKS\SRC\OFAPP.CPP
C:\USERS\DAVID\DOWNLOADS\OF_V0.9.8_VS_RELEASE\OF_V0.9.8_VS_RELEASE\APPS\MYAPPS\TEST-GUI-IFT\CAUSE3DSMAXSUCKS\OBJ\DEBUG\PRIMRECT.OBJ
C:\USERS\DAVID\DOWNLOADS\OF_V0.9.8_VS_RELEASE\OF_V0.9.8_VS_RELEASE\APPS\MYAPPS\TEST-GUI-IFT\CAUSE3DSMAXSUCKS\OBJ\DEBUG\MAIN.OBJ
C:\USERS\DAVID\DOWNLOADS\OF_V0.9.8_VS_RELEASE\OF_V0.9.8_VS_RELEASE\APPS\MYAPPS\TEST-GUI-IFT\CAUSE3DSMAXSUCKS\OBJ\DEBUG\OFXPANEL.OBJ
C:\USERS\DAVID\DOWNLOADS\OF_V0.9.8_VS_RELEASE\OF_V0.9.8_VS_RELEASE\APPS\MYAPPS\TEST-GUI-IFT\CAUSE3DSMAXSUCKS\OBJ\DEBUG\OFXTOGGLE.OBJ
C:\USERS\DAVID\DOWNLOADS\OF_V0.9.8_VS_RELEASE\OF_V0.9.8_VS_RELEASE\APPS\MYAPPS\TEST-GUI-IFT\CAUSE3DSMAXSUCKS\OBJ\DEBUG\SVGTINY.OBJ
C:\USERS\DAVID\DOWNLOADS\OF_V0.9.8_VS_RELEASE\OF_V0.9.8_VS_RELEASE\APPS\MYAPPS\TEST-GUI-IFT\CAUSE3DSMAXSUCKS\OBJ\DEBUG\CREEPS.OBJ
C:\USERS\DAVID\DOWNLOADS\OF_V0.9.8_VS_RELEASE\OF_V0.9.8_VS_RELEASE\APPS\MYAPPS\TEST-GUI-IFT\CAUSE3DSMAXSUCKS\OBJ\DEBUG\OFXXMLSETTINGS.OBJ
C:\USERS\DAVID\DOWNLOADS\OF_V0.9.8_VS_RELEASE\OF_V0.9.8_VS_RELEASE\APPS\MYAPPS\TEST-GUI-IFT\CAUSE3DSMAXSUCKS\OBJ\DEBUG\PRIMELLIPSE.OBJ
C:\USERS\DAVID\DOWNLOADS\OF_V0.9.8_VS_RELEASE\OF_V0.9.8_VS_RELEASE\APPS\MYAPPS\TEST-GUI-IFT\CAUSE3DSMAXSUCKS\OBJ\DEBUG\OFXBUTTON.OBJ
C:\USERS\DAVID\DOWNLOADS\OF_V0.9.8_VS_RELEASE\OF_V0.9.8_VS_RELEASE\APPS\MYAPPS\TEST-GUI-IFT\CAUSE3DSMAXSUCKS\OBJ\DEBUG\OFXGUIGROUP.OBJ
C:\USERS\DAVID\DOWNLOADS\OF_V0.9.8_VS_RELEASE\OF_V0.9.8_VS_RELEASE\APPS\MYAPPS\TEST-GUI-IFT\CAUSE3DSMAXSUCKS\OBJ\DEBUG\OFXSVG.OBJ
C:\USERS\DAVID\DOWNLOADS\OF_V0.9.8_VS_RELEASE\OF_V0.9.8_VS_RELEASE\APPS\MYAPPS\TEST-GUI-IFT\CAUSE3DSMAXSUCKS\OBJ\DEBUG\OFXVECTORGRAPHICS.OBJ
C:\USERS\DAVID\DOWNLOADS\OF_V0.9.8_VS_RELEASE\OF_V0.9.8_VS_RELEASE\APPS\MYAPPS\TEST-GUI-IFT\CAUSE3DSMAXSUCKS\OBJ\DEBUG\PRIMITIVEVECTORIELLE.OBJ
C:\USERS\DAVID\DOWNLOADS\OF_V0.9.8_VS_RELEASE\OF_V0.9.8_VS_RELEASE\APPS\MYAPPS\TEST-GUI-IFT\CAUSE3DSMAXSUCKS\OBJ\DEBUG\OFAPP.OBJ
C:\USERS\DAVID\DOWNLOADS\OF_V0.9.8_VS_RELEASE\OF_V0.9.8_VS_RELEASE\APPS\MYAPPS\TEST-GUI-IFT\CAUSE3DSMAXSUCKS\OBJ\DEBUG\OFXSLIDER.OBJ
C:\USERS\DAVID\DOWNLOADS\OF_V0.9.8_VS_RELEASE\OF_V0.9.8_VS_RELEASE\APPS\MYAPPS\TEST-GUI-IFT\CAUSE3DSMAXSUCKS\OBJ\DEBUG\SRC_COLORS.OBJ
C:\USERS\DAVID\DOWNLOADS\OF_V0.9.8_VS_RELEASE\OF_V0.9.8_VS_RELEASE\APPS\MYAPPS\TEST-GUI-IFT\CAUSE3DSMAXSUCKS\OBJ\DEBUG\SVGTINY_GRADIENT.OBJ
C:\USERS\DAVID\DOWNLOADS\OF_V0.9.8_VS_RELEASE\OF_V0.9.8_VS_RELEASE\APPS\MYAPPS\TEST-GUI-IFT\CAUSE3DSMAXSUCKS\OBJ\DEBUG\TINYXML.OBJ
C:\USERS\DAVID\DOWNLOADS\OF_V0.9.8_VS_RELEASE\OF_V0.9.8_VS_RELEASE\APPS\MYAPPS\TEST-GUI-IFT\CAUSE3DSMAXSUCKS\OBJ\DEBUG\TINYXMLERROR.OBJ
C:\USERS\DAVID\DOWNLOADS\OF_V0.9.8_VS_RELEASE\OF_V0.9.8_VS_RELEASE\APPS\MYAPPS\TEST-GUI-IFT\CAUSE3DSMAXSUCKS\OBJ\DEBUG\PRIMTRIANGLE.OBJ
C:\USERS\DAVID\DOWNLOADS\OF_V0.9.8_VS_RELEASE\OF_V0.9.8_VS_RELEASE\APPS\MYAPPS\TEST-GUI-IFT\CAUSE3DSMAXSUCKS\OBJ\DEBUG\OFXBASEGUI.OBJ
C:\USERS\DAVID\DOWNLOADS\OF_V0.9.8_VS_RELEASE\OF_V0.9.8_VS_RELEASE\APPS\MYAPPS\TEST-GUI-IFT\CAUSE3DSMAXSUCKS\OBJ\DEBUG\OFXLABEL.OBJ
C:\USERS\DAVID\DOWNLOADS\OF_V0.9.8_VS_RELEASE\OF_V0.9.8_VS_RELEASE\APPS\MYAPPS\TEST-GUI-IFT\CAUSE3DSMAXSUCKS\OBJ\DEBUG\OFXSLIDERGROUP.OBJ
C:\USERS\DAVID\DOWNLOADS\OF_V0.9.8_VS_RELEASE\OF_V0.9.8_VS_RELEASE\APPS\MYAPPS\TEST-GUI-IFT\CAUSE3DSMAXSUCKS\OBJ\DEBUG\SVGTINY_LIST.OBJ
C:\USERS\DAVID\DOWNLOADS\OF_V0.9.8_VS_RELEASE\OF_V0.9.8_VS_RELEASE\APPS\MYAPPS\TEST-GUI-IFT\CAUSE3DSMAXSUCKS\OBJ\DEBUG\TINYXMLPARSER.OBJ
^C:\USERS\DAVID\DOWNLOADS\OF_V0.9.8_VS_RELEASE\OF_V0.9.8_VS_RELEASE\APPS\MYAPPS\TEST-GUI-IFT\CAUSE3DSMAXSUCKS\PRIMELLIPSE.CPP
C:\USERS\DAVID\DOWNLOADS\OF_V0.9.8_VS_RELEASE\OF_V0.9.8_VS_RELEASE\APPS\MYAPPS\TEST-GUI-IFT\CAUSE3DSMAXSUCKS\OBJ\DEBUG\VC140.PDB
^C:\USERS\DAVID\DOWNLOADS\OF_V0.9.8_VS_RELEASE\OF_V0.9.8_VS_RELEASE\APPS\MYAPPS\TEST-GUI-IFT\CAUSE3DSMAXSUCKS\PRIMITIVEVECTORIELLE.CPP
C:\USERS\DAVID\DOWNLOADS\OF_V0.9.8_VS_RELEASE\OF_V0.9.8_VS_RELEASE\APPS\MYAPPS\TEST-GUI-IFT\CAUSE3DSMAXSUCKS\OBJ\DEBUG\VC140.PDB
^C:\USERS\DAVID\DOWNLOADS\OF_V0.9.8_VS_RELEASE\OF_V0.9.8_VS_RELEASE\APPS\MYAPPS\TEST-GUI-IFT\CAUSE3DSMAXSUCKS\PRIMRECT.CPP
C:\USERS\DAVID\DOWNLOADS\OF_V0.9.8_VS_RELEASE\OF_V0.9.8_VS_RELEASE\APPS\MYAPPS\TEST-GUI-IFT\CAUSE3DSMAXSUCKS\OBJ\DEBUG\VC140.PDB
^C:\USERS\DAVID\DOWNLOADS\OF_V0.9.8_VS_RELEASE\OF_V0.9.8_VS_RELEASE\APPS\MYAPPS\TEST-GUI-IFT\CAUSE3DSMAXSUCKS\PRIMTRIANGLE.CPP
C:\USERS\DAVID\DOWNLOADS\OF_V0.9.8_VS_RELEASE\OF_V0.9.8_VS_RELEASE\APPS\MYAPPS\TEST-GUI-IFT\CAUSE3DSMAXSUCKS\OBJ\DEBUG\VC140.PDB
^C:\USERS\DAVID\DOWNLOADS\OF_V0.9.8_VS_RELEASE\OF_V0.9.8_VS_RELEASE\APPS\MYAPPS\TEST-GUI-IFT\CAUSE3DSMAXSUCKS\SRC\MAIN.CPP
C:\USERS\DAVID\DOWNLOADS\OF_V0.9.8_VS_RELEASE\OF_V0.9.8_VS_RELEASE\APPS\MYAPPS\TEST-GUI-IFT\CAUSE3DSMAXSUCKS\OBJ\DEBUG\VC140.PDB
^C:\USERS\DAVID\DOWNLOADS\OF_V0.9.8_VS_RELEASE\OF_V0.9.8_VS_RELEASE\APPS\MYAPPS\TEST-GUI-IFT\CAUSE3DSMAXSUCKS\SRC\OFAPP.CPP
C:\USERS\DAVID\DOWNLOADS\OF_V0.9.8_VS_RELEASE\OF_V0.9.8_VS_RELEASE\APPS\MYAPPS\TEST-GUI-IFT\CAUSE3DSMAXSUCKS\OBJ\DEBUG\VC140.PDB
^C:\USERS\DAVID\DOWNLOADS\OF_V0.9.8_VS_RELEASE\OF_V0.9.8_VS_RELEASE\ADDONS\OFXGUI\SRC\OFXBASEGUI.CPP
C:\USERS\DAVID\DOWNLOADS\OF_V0.9.8_VS_RELEASE\OF_V0.9.8_VS_RELEASE\APPS\MYAPPS\TEST-GUI-IFT\CAUSE3DSMAXSUCKS\OBJ\DEBUG\VC140.PDB
^C:\USERS\DAVID\DOWNLOADS\OF_V0.9.8_VS_RELEASE\OF_V0.9.8_VS_RELEASE\ADDONS\OFXGUI\SRC\OFXBUTTON.CPP
C:\USERS\DAVID\DOWNLOADS\OF_V0.9.8_VS_RELEASE\OF_V0.9.8_VS_RELEASE\APPS\MYAPPS\TEST-GUI-IFT\CAUSE3DSMAXSUCKS\OBJ\DEBUG\VC140.PDB
^C:\USERS\DAVID\DOWNLOADS\OF_V0.9.8_VS_RELEASE\OF_V0.9.8_VS_RELEASE\ADDONS\OFXGUI\SRC\OFXGUIGROUP.CPP
C:\USERS\DAVID\DOWNLOADS\OF_V0.9.8_VS_RELEASE\OF_V0.9.8_VS_RELEASE\APPS\MYAPPS\TEST-GUI-IFT\CAUSE3DSMAXSUCKS\OBJ\DEBUG\VC140.PDB
^C:\USERS\DAVID\DOWNLOADS\OF_V0.9.8_VS_RELEASE\OF_V0.9.8_VS_RELEASE\ADDONS\OFXGUI\SRC\OFXLABEL.CPP
C:\USERS\DAVID\DOWNLOADS\OF_V0.9.8_VS_RELEASE\OF_V0.9.8_VS_RELEASE\APPS\MYAPPS\TEST-GUI-IFT\CAUSE3DSMAXSUCKS\OBJ\DEBUG\VC140.PDB
^C:\USERS\DAVID\DOWNLOADS\OF_V0.9.8_VS_RELEASE\OF_V0.9.8_VS_RELEASE\ADDONS\OFXGUI\SRC\OFXPANEL.CPP
C:\USERS\DAVID\DOWNLOADS\OF_V0.9.8_VS_RELEASE\OF_V0.9.8_VS_RELEASE\APPS\MYAPPS\TEST-GUI-IFT\CAUSE3DSMAXSUCKS\OBJ\DEBUG\VC140.PDB
^C:\USERS\DAVID\DOWNLOADS\OF_V0.9.8_VS_RELEASE\OF_V0.9.8_VS_RELEASE\ADDONS\OFXGUI\SRC\OFXSLIDER.CPP
C:\USERS\DAVID\DOWNLOADS\OF_V0.9.8_VS_RELEASE\OF_V0.9.8_VS_RELEASE\APPS\MYAPPS\TEST-GUI-IFT\CAUSE3DSMAXSUCKS\OBJ\DEBUG\VC140.PDB
^C:\USERS\DAVID\DOWNLOADS\OF_V0.9.8_VS_RELEASE\OF_V0.9.8_VS_RELEASE\ADDONS\OFXGUI\SRC\OFXSLIDERGROUP.CPP
C:\USERS\DAVID\DOWNLOADS\OF_V0.9.8_VS_RELEASE\OF_V0.9.8_VS_RELEASE\APPS\MYAPPS\TEST-GUI-IFT\CAUSE3DSMAXSUCKS\OBJ\DEBUG\VC140.PDB
^C:\USERS\DAVID\DOWNLOADS\OF_V0.9.8_VS_RELEASE\OF_V0.9.8_VS_RELEASE\ADDONS\OFXGUI\SRC\OFXTOGGLE.CPP
C:\USERS\DAVID\DOWNLOADS\OF_V0.9.8_VS_RELEASE\OF_V0.9.8_VS_RELEASE\APPS\MYAPPS\TEST-GUI-IFT\CAUSE3DSMAXSUCKS\OBJ\DEBUG\VC140.PDB
^C:\USERS\DAVID\DOWNLOADS\OF_V0.9.8_VS_RELEASE\OF_V0.9.8_VS_RELEASE\ADDONS\OFXSVG\SRC\OFXSVG.CPP
C:\USERS\DAVID\DOWNLOADS\OF_V0.9.8_VS_RELEASE\OF_V0.9.8_VS_RELEASE\APPS\MYAPPS\TEST-GUI-IFT\CAUSE3DSMAXSUCKS\OBJ\DEBUG\VC140.PDB
^C:\USERS\DAVID\DOWNLOADS\OF_V0.9.8_VS_RELEASE\OF_V0.9.8_VS_RELEASE\ADDONS\OFXSVG\LIBS\SVGTINY\SRC\SRC_COLORS.CPP
C:\USERS\DAVID\DOWNLOADS\OF_V0.9.8_VS_RELEASE\OF_V0.9.8_VS_RELEASE\APPS\MYAPPS\TEST-GUI-IFT\CAUSE3DSMAXSUCKS\OBJ\DEBUG\VC140.PDB
^C:\USERS\DAVID\DOWNLOADS\OF_V0.9.8_VS_RELEASE\OF_V0.9.8_VS_RELEASE\ADDONS\OFXSVG\LIBS\SVGTINY\SRC\SVGTINY.CPP
C:\USERS\DAVID\DOWNLOADS\OF_V0.9.8_VS_RELEASE\OF_V0.9.8_VS_RELEASE\APPS\MYAPPS\TEST-GUI-IFT\CAUSE3DSMAXSUCKS\OBJ\DEBUG\VC140.PDB
^C:\USERS\DAVID\DOWNLOADS\OF_V0.9.8_VS_RELEASE\OF_V0.9.8_VS_RELEASE\ADDONS\OFXSVG\LIBS\SVGTINY\SRC\SVGTINY_GRADIENT.CPP
C:\USERS\DAVID\DOWNLOADS\OF_V0.9.8_VS_RELEASE\OF_V0.9.8_VS_RELEASE\APPS\MYAPPS\TEST-GUI-IFT\CAUSE3DSMAXSUCKS\OBJ\DEBUG\VC140.PDB
^C:\USERS\DAVID\DOWNLOADS\OF_V0.9.8_VS_RELEASE\OF_V0.9.8_VS_RELEASE\ADDONS\OFXSVG\LIBS\SVGTINY\SRC\SVGTINY_LIST.CPP
C:\USERS\DAVID\DOWNLOADS\OF_V0.9.8_VS_RELEASE\OF_V0.9.8_VS_RELEASE\APPS\MYAPPS\TEST-GUI-IFT\CAUSE3DSMAXSUCKS\OBJ\DEBUG\VC140.PDB
^C:\USERS\DAVID\DOWNLOADS\OF_V0.9.8_VS_RELEASE\OF_V0.9.8_VS_RELEASE\ADDONS\OFXVECTORGRAPHICS\SRC\OFXVECTORGRAPHICS.CPP
C:\USERS\DAVID\DOWNLOADS\OF_V0.9.8_VS_RELEASE\OF_V0.9.8_VS_RELEASE\APPS\MYAPPS\TEST-GUI-IFT\CAUSE3DSMAXSUCKS\OBJ\DEBUG\VC140.PDB
^C:\USERS\DAVID\DOWNLOADS\OF_V0.9.8_VS_RELEASE\OF_V0.9.8_VS_RELEASE\ADDONS\OFXVECTORGRAPHICS\LIBS\CREEPS.CPP
C:\USERS\DAVID\DOWNLOADS\OF_V0.9.8_VS_RELEASE\OF_V0.9.8_VS_RELEASE\APPS\MYAPPS\TEST-GUI-IFT\CAUSE3DSMAXSUCKS\OBJ\DEBUG\VC140.PDB
^C:\USERS\DAVID\DOWNLOADS\OF_V0.9.8_VS_RELEASE\OF_V0.9.8_VS_RELEASE\ADDONS\OFXXMLSETTINGS\SRC\OFXXMLSETTINGS.CPP
C:\USERS\DAVID\DOWNLOADS\OF_V0.9.8_VS_RELEASE\OF_V0.9.8_VS_RELEASE\APPS\MYAPPS\TEST-GUI-IFT\CAUSE3DSMAXSUCKS\OBJ\DEBUG\VC140.PDB
^C:\USERS\DAVID\DOWNLOADS\OF_V0.9.8_VS_RELEASE\OF_V0.9.8_VS_RELEASE\ADDONS\OFXXMLSETTINGS\LIBS\TINYXML.CPP
C:\USERS\DAVID\DOWNLOADS\OF_V0.9.8_VS_RELEASE\OF_V0.9.8_VS_RELEASE\APPS\MYAPPS\TEST-GUI-IFT\CAUSE3DSMAXSUCKS\OBJ\DEBUG\VC140.PDB
^C:\USERS\DAVID\DOWNLOADS\OF_V0.9.8_VS_RELEASE\OF_V0.9.8_VS_RELEASE\ADDONS\OFXXMLSETTINGS\LIBS\TINYXMLERROR.CPP
C:\USERS\DAVID\DOWNLOADS\OF_V0.9.8_VS_RELEASE\OF_V0.9.8_VS_RELEASE\APPS\MYAPPS\TEST-GUI-IFT\CAUSE3DSMAXSUCKS\OBJ\DEBUG\VC140.PDB
^C:\USERS\DAVID\DOWNLOADS\OF_V0.9.8_VS_RELEASE\OF_V0.9.8_VS_RELEASE\ADDONS\OFXXMLSETTINGS\LIBS\TINYXMLPARSER.CPP
C:\USERS\DAVID\DOWNLOADS\OF_V0.9.8_VS_RELEASE\OF_V0.9.8_VS_RELEASE\APPS\MYAPPS\TEST-GUI-IFT\CAUSE3DSMAXSUCKS\OBJ\DEBUG\VC140.PDB
